{
  "container": {
    "loop": [
      {
        "div": [
          "class",
          "content"
        ]
      },
      {
        "div": [
          "class",
          "mainbar"
        ]
      },
      {
        "div": [
          "class",
          "matter"
        ]
      },
      {
        "div": [
          "class",
          "container"
        ]
      },
      {
        "div": [
          "class",
          "row"
        ]
      },
      {
        "div": [
          "class",
          "col-lg-6 jobs-mid"
        ]
      },
      {
        "div": [
          "class",
          "row"
        ]
      },
      {
        "section": [
          "id",
          "resultsWrapper"
        ]
      }
    ],
    "find_all": [
      {
        "div": []
      }
    ]
  },
  "job_title": [
    {
      "article": [
        "class",
        "js_result_row"
      ]
    },
    {
      "div": [
        "class",
        "js_result_details-left"
      ]
    },
    {
      "div": [
        "class",
        "jobTitle"
      ]
    }
  ],
  "job_location": [
    {
      "article": [
        "class",
        "js_result_row"
      ]
    },
    {
      "div": [
        "class",
        "js_result_details-left"
      ]
    },
    {
      "div": [
        "class",
        "row"
      ]
    },
    {
      "div": [
        "class",
        "job-specs job-specs-location"
      ]
    }
  ],
  "job_link": [
    {
      "article": [
        "class",
        "js_result_row"
      ]
    },
    {
      "div": [
        "class",
        "js_result_details-left"
      ]
    },
    {
      "div": [
        "class",
        "jobTitle"
      ]
    },
    {
      "href": []
    }
  ]
}